Bayesian Longitudinal Multilevel Models
…
The documentation goes on to further note that:

The data are measures from 107 trees. The trees were selected as being of average size from healthy and well stocked stands in the Alps.

Import The Data 

Show code

library(haven)

gutten <- read_dta("gutten.dta")

gutten 

# A tibble: 1,200 x 9
      site location  tree age_base height dbh_cm volume age_bh tree_ID
   <dbl+l> <dbl+lb> <dbl>    <dbl>  <dbl>  <dbl>  <dbl>  <dbl> <dbl+l>
 1   1 [1]    1 [1]     1       20    4.2    4.6      5   9.67 1 [1.1]
 2   1 [1]    1 [1]     1       30    9.3   10.2     38  19.7  1 [1.1]
 3   1 [1]    1 [1]     1       40   14.9   14.9    123  29.7  1 [1.1]
 4   1 [1]    1 [1]     1       50   19.7   18.3    263  39.7  1 [1.1]
 5   1 [1]    1 [1]     1       60   23     20.7    400  49.7  1 [1.1]
 6   1 [1]    1 [1]     1       70   25.8   22.6    555  59.7  1 [1.1]
 7   1 [1]    1 [1]     1       80   27.4   24.1    688  69.7  1 [1.1]
 8   1 [1]    1 [1]     1       90   28.8   25.5    820  79.7  1 [1.1]
 9   1 [1]    1 [1]     1      100   30     26.5    928  89.7  1 [1.1]
10   1 [1]    1 [1]     1      110   30.9   27.3   1023  99.7  1 [1.1]
# ... with 1,190 more rows
…
